00;center_of_mass;(1460.0, 688.0)
01;center_of_mass;(1240.0, 1318.0)
02;center_of_mass;(1500.0, 1508.0)
03;center_of_mass;(240.0, 978.0)
04;center_of_mass;(400.0, 1024.0)
05;center_of_mass;(1024.0, 1024.0)

