\headcommand {\slideentry {0}{0}{1}{1/1}{}{0}}
\headcommand {\beamer@framepages {1}{1}}
\headcommand {\beamer@sectionpages {1}{1}}
\headcommand {\beamer@subsectionpages {1}{1}}
\headcommand {\sectionentry {1}{Introduction}{2}{Introduction}{0}}
\headcommand {\slideentry {1}{0}{1}{2/4}{}{0}}
\headcommand {\beamer@framepages {2}{4}}
\headcommand {\slideentry {1}{0}{2}{5/5}{}{0}}
\headcommand {\beamer@framepages {5}{5}}
\headcommand {\beamer@sectionpages {2}{5}}
\headcommand {\beamer@subsectionpages {2}{5}}
\headcommand {\sectionentry {2}{Related Work}{6}{Related Work}{0}}
\headcommand {\slideentry {2}{0}{1}{6/8}{}{0}}
\headcommand {\beamer@framepages {6}{8}}
\headcommand {\slideentry {2}{0}{2}{9/9}{}{0}}
\headcommand {\beamer@framepages {9}{9}}
\headcommand {\slideentry {2}{0}{3}{10/10}{}{0}}
\headcommand {\beamer@framepages {10}{10}}
\headcommand {\slideentry {2}{0}{4}{11/17}{}{0}}
\headcommand {\beamer@framepages {11}{17}}
\headcommand {\slideentry {2}{0}{5}{18/18}{}{0}}
\headcommand {\beamer@framepages {18}{18}}
\headcommand {\slideentry {2}{0}{6}{19/19}{}{0}}
\headcommand {\beamer@framepages {19}{19}}
\headcommand {\slideentry {2}{0}{7}{20/20}{}{0}}
\headcommand {\beamer@framepages {20}{20}}
\headcommand {\beamer@subsectionpages {6}{20}}
\headcommand {\beamer@subsectionentry {0}{2}{1}{21}{PixMix}}
\headcommand {\slideentry {2}{1}{1}{21/22}{PixMix}{0}}
\headcommand {\beamer@framepages {21}{22}}
\headcommand {\slideentry {2}{1}{2}{23/25}{PixMix}{0}}
\headcommand {\beamer@framepages {23}{25}}
\headcommand {\slideentry {2}{1}{3}{26/26}{PixMix}{0}}
\headcommand {\beamer@framepages {26}{26}}
\headcommand {\slideentry {2}{1}{4}{27/27}{PixMix}{0}}
\headcommand {\beamer@framepages {27}{27}}
\headcommand {\beamer@sectionpages {6}{27}}
\headcommand {\beamer@subsectionpages {21}{27}}
\headcommand {\sectionentry {3}{Our Approach}{28}{Our Approach}{0}}
\headcommand {\slideentry {3}{0}{1}{28/28}{}{0}}
\headcommand {\beamer@framepages {28}{28}}
\headcommand {\slideentry {3}{0}{2}{29/29}{}{0}}
\headcommand {\beamer@framepages {29}{29}}
\headcommand {\slideentry {3}{0}{3}{30/30}{}{0}}
\headcommand {\beamer@framepages {30}{30}}
\headcommand {\slideentry {3}{0}{4}{31/31}{}{0}}
\headcommand {\beamer@framepages {31}{31}}
\headcommand {\slideentry {3}{0}{5}{32/32}{}{0}}
\headcommand {\beamer@framepages {32}{32}}
\headcommand {\slideentry {3}{0}{6}{33/36}{}{0}}
\headcommand {\beamer@framepages {33}{36}}
\headcommand {\slideentry {3}{0}{7}{37/37}{}{0}}
\headcommand {\beamer@framepages {37}{37}}
\headcommand {\slideentry {3}{0}{8}{38/38}{}{0}}
\headcommand {\beamer@framepages {38}{38}}
\headcommand {\slideentry {3}{0}{9}{39/42}{}{0}}
\headcommand {\beamer@framepages {39}{42}}
\headcommand {\slideentry {3}{0}{10}{43/47}{}{0}}
\headcommand {\beamer@framepages {43}{47}}
\headcommand {\slideentry {3}{0}{11}{48/48}{}{0}}
\headcommand {\beamer@framepages {48}{48}}
\headcommand {\slideentry {3}{0}{12}{49/49}{}{0}}
\headcommand {\beamer@framepages {49}{49}}
\headcommand {\slideentry {3}{0}{13}{50/50}{}{0}}
\headcommand {\beamer@framepages {50}{50}}
\headcommand {\slideentry {3}{0}{14}{51/51}{}{0}}
\headcommand {\beamer@framepages {51}{51}}
\headcommand {\beamer@sectionpages {28}{51}}
\headcommand {\beamer@subsectionpages {28}{51}}
\headcommand {\sectionentry {4}{Results}{52}{Results}{0}}
\headcommand {\slideentry {4}{0}{1}{52/52}{}{0}}
\headcommand {\beamer@framepages {52}{52}}
\headcommand {\slideentry {4}{0}{2}{53/53}{}{0}}
\headcommand {\beamer@framepages {53}{53}}
\headcommand {\slideentry {4}{0}{3}{54/54}{}{0}}
\headcommand {\beamer@framepages {54}{54}}
\headcommand {\slideentry {4}{0}{4}{55/55}{}{0}}
\headcommand {\beamer@framepages {55}{55}}
\headcommand {\slideentry {4}{0}{5}{56/56}{}{0}}
\headcommand {\beamer@framepages {56}{56}}
\headcommand {\slideentry {4}{0}{6}{57/57}{}{0}}
\headcommand {\beamer@framepages {57}{57}}
\headcommand {\beamer@sectionpages {52}{57}}
\headcommand {\beamer@subsectionpages {52}{57}}
\headcommand {\sectionentry {5}{Conclusion}{58}{Conclusion}{0}}
\headcommand {\slideentry {5}{0}{1}{58/58}{}{0}}
\headcommand {\beamer@framepages {58}{58}}
\headcommand {\slideentry {5}{0}{2}{59/59}{}{0}}
\headcommand {\beamer@framepages {59}{59}}
\headcommand {\gdef \insertmainframenumber {37}}
\headcommand {\beamer@sectionpages {58}{59}}
\headcommand {\beamer@subsectionpages {58}{59}}
\headcommand {\sectionentry {6}{Bibliography}{60}{Bibliography}{0}}
\headcommand {\partentry {Appendix}{1}}
\headcommand {\beamer@partpages {1}{59}}
\headcommand {\beamer@sectionpages {60}{59}}
\headcommand {\beamer@subsectionpages {60}{59}}
\headcommand {\beamer@appendixpages {60}}
\headcommand {\slideentry {6}{0}{1}{60/60}{}{1}}
\headcommand {\beamer@framepages {60}{60}}
\headcommand {\slideentry {6}{0}{2}{61/61}{}{1}}
\headcommand {\beamer@framepages {61}{61}}
\headcommand {\beamer@partpages {1}{61}}
\headcommand {\beamer@subsectionpages {60}{61}}
\headcommand {\beamer@sectionpages {60}{61}}
\headcommand {\beamer@documentpages {61}}
\headcommand {\gdef \inserttotalframenumber {38}}
